<?xml version="1.0" encoding="UTF-8" standalone="no"?>
<svg
   xmlns:dc="http://purl.org/dc/elements/1.1/"
   xmlns:cc="http://creativecommons.org/ns#"
   xmlns:rdf="http://www.w3.org/1999/02/22-rdf-syntax-ns#"
   xmlns:svg="http://www.w3.org/2000/svg"
   xmlns="http://www.w3.org/2000/svg"
   id="svg8"
   version="1.1"
   viewBox="0 0 360.60995 360.60995"
   >
  <defs
     id="defs2" />
  <metadata
     id="metadata5">
    <rdf:RDF>
      <cc:Work
         rdf:about="">
        <dc:format>image/svg+xml</dc:format>
        <dc:type
           rdf:resource="http://purl.org/dc/dcmitype/StillImage" />
        <dc:title></dc:title>
      </cc:Work>
    </rdf:RDF>
  </metadata>
  <g
     transform="translate(19.549892,60.969904)"
     id="layer1">
    <rect
       y="-60.801205"
       x="-19.381128"
       height="360.27246"
       width="360.27246"
       id="rect4636"
       style="fill:#42ff08;fill-opacity:1;stroke:#3b64b8;stroke-width:0.33752826;stroke-linecap:round;stroke-linejoin:round;stroke-miterlimit:4;stroke-dasharray:1.01258481, 1.01258481;stroke-dashoffset:0;stroke-opacity:1" />
    <path
       id="path4634"
       d="m 120.0958,270.98563 c -4.85603,-0.63144 -8.22102,-1.42525 -11.1126,-2.62148 -16.023139,-6.62708 -26.600599,-20.92791 -27.873317,-37.68443 l -0.221042,-2.9103 h 11.772074 11.772145 l 0.47076,2.73398 c 0.92045,5.34656 3.97672,10.26232 8.23606,13.24828 3.96614,2.78027 7.05039,3.77329 11.71821,3.77329 5.50968,0 10.0356,-1.82712 13.98186,-5.64449 2.61332,-2.52795 4.03014,-4.71677 5.27132,-8.1432 1.06472,-2.93977 1.16701,-9.35556 0.19347,-12.14153 -2.25845,-6.46287 -6.79961,-11.12933 -13.09664,-13.45875 -1.68969,-0.62479 -4.89699,-0.65967 -76.199964,-0.82882 l -74.436104,-0.17638 v -11.81795 -11.81801 l 72.319448,-0.11133 c 72.27697,-0.11133 75.95138,-0.0635 81.13878,1.0671 13.00557,2.83334 24.27228,11.57878 30.12848,23.38592 2.26712,4.57099 2.99443,6.82476 4.24874,13.16774 0.75982,3.84257 0.41897,11.73522 -0.70344,16.28916 -3.25188,13.19382 -11.94018,23.97257 -23.97236,29.73989 -4.56395,2.1876 -8.21623,3.21265 -14.11104,3.95959 -4.62401,0.58627 -4.95786,0.58597 -9.52484,-0.008 z m 97.49285,-72.32344 c -0.0758,-0.19582 -0.0954,-5.43444 -0.0437,-11.64164 l 0.0944,-11.28581 32.6319,-0.20648 c 21.86519,-0.13804 33.21392,-0.33511 34.39585,-0.5975 11.45404,-2.54141 20.24395,-8.32361 26.33316,-17.32254 2.71438,-4.01139 5.15259,-10.02421 6.12457,-15.10358 0.70284,-3.67326 0.69006,-11.4923 -0.0253,-14.92419 -2.20131,-10.5721 -7.83586,-19.24526 -16.55901,-25.48868 -3.9139,-2.801244 -8.0833,-4.687314 -13.54725,-6.128192 -3.05067,-0.80454 -4.2653,-0.912234 -12.29293,-1.090145 -6.20223,-0.137445 -8.90415,-0.316732 -8.89602,-0.59032 0.11486,-3.9392 -0.51267,-19.75701 -0.90166,-22.730406 C 261.65692,46.75175 249.68736,25.87414 229.43513,9.6895872 226.09441,7.0198198 218.87223,2.5508819 214.11081,0.20722193 207.81706,-2.8906884 201.7484,-5.1371971 195.64695,-6.6279391 c -4.55712,-1.113438 -6.25621,-1.43171 -12.29576,-2.303216 -3.27169,-0.472097 -17.38261,-0.474489 -20.67793,-0.0036 -6.61516,0.945439 -8.05433,1.222691 -13.12072,2.5277 C 128.392,-0.95656997 109.61458,12.249401 96.729423,30.742935 89.621876,40.944089 84.119715,54.26575 81.940314,66.549904 c -0.902731,5.088202 -1.092018,7.622945 -1.304079,17.462487 l -0.228104,10.583352 -8.819433,0.219079 c -7.48034,0.185833 -9.296594,0.339214 -11.961978,1.010186 -7.792349,1.96153 -13.22915,4.978212 -18.973805,10.527772 -7.476707,7.22266 -11.740575,16.54526 -12.371162,27.04861 l -0.08479,1.41109 H 16.555404 4.9137305 l 0.09421,-3.52791 c 0.435795,-16.32115 9.2107755,-33.869738 22.4294805,-44.855408 6.510052,-5.410301 13.548287,-9.375368 21.220752,-11.954944 2.33459,-0.784914 6.818748,-1.927065 7.565824,-1.927065 0.930991,0 1.312866,-0.80732 1.585252,-3.351376 0.893026,-8.340716 3.333931,-18.434449 6.483577,-26.811107 11.711553,-31.14762 37.084544,-56.518591 67.973664,-67.968454 9.16789,-3.398283 16.01541,-5.074462 27.34035,-6.692497 4.4584,-0.637019 22.21124,-0.651597 26.81102,-0.02195 14.73201,2.016244 26.21726,5.461323 38.27651,11.481274 5.56707,2.77906 6.84009,3.514785 12.41251,7.172411 23.70128,15.5575065 41.26487,40.073486 48.22748,67.318192 1.74628,6.832999 2.00069,8.130246 3.06704,15.639788 0.22964,1.616899 0.59449,2.984236 0.81079,3.038536 0.2163,0.05442 2.10683,0.519193 4.20132,1.033066 11.10503,2.724649 21.80582,8.970369 30.07822,17.555849 8.46244,8.782433 13.97255,19.315705 16.64262,31.813725 0.83231,3.89571 0.91861,5.03765 0.92555,12.23424 0.008,8.24589 -0.24754,10.51679 -1.87203,16.64102 -1.37604,5.18692 -3.39496,10.01583 -6.6868,15.99393 -2.53289,4.59973 -8.14294,11.30173 -13.05452,15.59571 -8.69347,7.60029 -18.48531,12.30702 -31.21579,15.004 -2.44486,0.51814 -70.44968,0.94019 -70.64209,0.43868 z M -19.477959,174.6732 c -0.0752,-0.19556 -0.09451,-5.43428 -0.04337,-11.64165 l 0.0932,-11.28579 97.543079,-0.19981 c 65.97672,-0.13531 98.05654,-0.31951 99.13047,-0.56918 7.09382,-1.6497 12.69723,-6.72787 15.11064,-13.69497 2.93602,-8.4756 -0.89467,-18.59952 -8.8473,-23.38257 -3.66637,-2.20517 -5.28386,-2.63245 -10.14393,-2.67983 -4.71639,-0.0465 -5.74853,0.16515 -9.36153,1.91566 -3.77118,1.82694 -6.93552,4.96487 -8.96187,8.88718 -1.2025,2.32789 -1.40564,2.9933 -1.91115,6.26386 l -0.40882,2.64573 h -11.63862 -11.63885 l -0.11797,-2.11654 c -0.11153,-1.99826 0.38819,-5.99134 0.99324,-7.93758 0.15084,-0.48521 0.64674,-2.07273 1.10219,-3.52774 1.08,-3.45117 3.06326,-7.5072 5.31829,-10.8764 2.31071,-3.45239 8.16112,-9.311513 11.57795,-11.595131 4.35743,-2.912329 10.18932,-5.467215 14.64031,-6.41383 0.97002,-0.20631 2.50874,-0.538406 3.41922,-0.737971 3.8539,-0.844632 12.67126,-0.345457 18.18227,1.029363 7.4228,1.851788 16.39795,7.434816 21.47215,13.356689 5.29588,6.18075 8.34829,12.50346 10.36515,21.47018 0.62469,2.77703 0.52322,12.51718 -0.16528,15.85089 -2.79437,13.53229 -11.35518,24.86026 -23.2507,30.76615 -4.64878,2.308 -7.35446,3.21422 -12.7367,4.26615 -2.79739,0.54664 -199.513666,0.75068 -199.722223,0.20714 z"
       style="fill:#000000;stroke-width:0.35277763" />
  </g>
</svg>
